DAY-1 : https://devopsworld.s3.amazonaws.com/730pm_DAY-1_20210325/zoom_0.mp4

Agenda :

Getting started with DevOps Training :
    
    - Prerequisites :

    - Operating System Basics :

    - Summary 
    
    Q & ? 
<<<<<<< HEAD

- Prerequisites :
    
VCS/SCM :
    https://git-scm.com/

IDE :
    https://code.visualstudio.com/

Virtualization :
    https://www.virtualbox.org/

Linux Operating System :
    - Distribution : Ubuntu ; Version : 18.04 
    - Type of Operating System : Server Version [ CUI or CLI or TEXT Mode ]
    
https://releases.ubuntu.com/18.04/ubuntu-18.04.5-live-server-amd64.iso

https://ubuntu.com/server/docs/installation

=======
>>>>>>> cce902976aaf6fae600d32e66fc77d02317d0a5d
